^C:\USERS\USER\SOURCE\REPOS\HW6\Q1\Q1\EXCEP_CALC.CPP
C:\USERS\USER\SOURCE\REPOS\HW6\Q1\Q1 EXC\DEBUG\VC141.PDB
C:\USERS\USER\SOURCE\REPOS\HW6\Q1\Q1 EXC\DEBUG\VC141.IDB
C:\USERS\USER\SOURCE\REPOS\HW6\Q1\Q1 EXC\DEBUG\EXCEP_CALC.OBJ
